Warning: Permanently added '10.128.0.73' (ECDSA) to the list of known hosts.
Warning: Permanently added '10.128.0.90' (ECDSA) to the list of known hosts.
Warning: Permanently added '10.128.0.87' (ECDSA) to the list of known hosts.
Warning: Permanently added '10.128.0.85' (ECDSA) to the list of known hosts.
Warning: Permanently added '10.128.0.86' (ECDSA) to the list of known hosts.
Warning: Permanently added '10.128.0.88' (ECDSA) to the list of known hosts.
Warning: Permanently added '10.128.0.92' (ECDSA) to the list of known hosts.
Warning: Permanently added '10.128.0.84' (ECDSA) to the list of known hosts.
Warning: Permanently added '10.128.0.83' (ECDSA) to the list of known hosts.
Warning: Permanently added '10.128.0.82' (ECDSA) to the list of known hosts.
Warning: Permanently added '10.128.0.89' (ECDSA) to the list of known hosts.
Warning: Permanently added '10.128.0.91' (ECDSA) to the list of known hosts.
Warning: Permanently added '10.128.0.93' (ECDSA) to the list of known hosts.
Warning: Permanently added '10.128.0.94' (ECDSA) to the list of known hosts.
Warning: Permanently added '10.128.0.74' (ECDSA) to the list of known hosts.
Warning: Permanently added '10.128.0.100' (ECDSA) to the list of known hosts.
Warning: Permanently added '10.128.0.98' (ECDSA) to the list of known hosts.
Warning: Permanently added '10.128.0.97' (ECDSA) to the list of known hosts.
Warning: Permanently added '10.128.0.96' (ECDSA) to the list of known hosts.
Warning: Permanently added '10.128.0.99' (ECDSA) to the list of known hosts.
Warning: Permanently added '10.128.0.75' (ECDSA) to the list of known hosts.
Warning: Permanently added '10.128.0.101' (ECDSA) to the list of known hosts.
Warning: Permanently added '10.128.0.95' (ECDSA) to the list of known hosts.
Warning: Permanently added '10.128.0.77' (ECDSA) to the list of known hosts.
Warning: Permanently added '10.128.0.79' (ECDSA) to the list of known hosts.
Warning: Permanently added '10.128.0.76' (ECDSA) to the list of known hosts.
Warning: Permanently added '10.128.0.78' (ECDSA) to the list of known hosts.
Warning: Permanently added '10.128.0.80' (ECDSA) to the list of known hosts.
Warning: Permanently added '10.128.0.102' (ECDSA) to the list of known hosts.
Warning: Permanently added '10.128.0.81' (ECDSA) to the list of known hosts.
